{
  "results": [
    {
      "id": "CHINESE",
      "text": "Chinese"
    },
    {
      "id": "MALAY",
      "text": "Malay"
    },
    {
      "id": "INDIAN",
      "text": "Indian"
    },
    {
      "id": "OTHERS",
      "text": "Others"
    }
  ]
}