{
  "results": [
    {
      "id": "BUDDHISM",
      "text": "Buddhism"
    },
    {
      "id": "CHRISTIANITY",
      "text": "Christianity"
    },
    {
      "id": "CATHOLICISM",
      "text": "Catholicism"
    },
    {
      "id": "NOT_RELIGIOUS",
      "text": "Not religious"
    },
    {
      "id": "ISLAM",
      "text": "Islam"
    },
    {
      "id": "TAOISM",
      "text": "Taoism"
    },
    {
      "id": "HINDUISM",
      "text": "Hinduism"
    },
    {
      "id": "OTHERS",
      "text": "Others"
    }
  ]
}