{
  "results": [
    {
      "id": "AF",
      "text": "+93"
    },
    {
      "id": "AC",
      "text": "+247"
    },
    {
      "id": "AD",
      "text": "+376"
    },
    {
      "id": "AE",
      "text": "+971"
    },
    {
      "id": "AG",
      "text": "+1268"
    },
    {
      "id": "AI",
      "text": "+1264"
    },
    {
      "id": "AL",
      "text": "+355"
    },
    {
      "id": "AM",
      "text": "+374"
    },
    {
      "id": "AN",
      "text": "+599"
    },
    {
      "id": "AO",
      "text": "+244"
    },
    {
      "id": "AR",
      "text": "+54"
    },
    {
      "id": "AS",
      "text": "+1684"
    },
    {
      "id": "AT",
      "text": "+43"
    },
    {
      "id": "AU",
      "text": "+61"
    },
    {
      "id": "AW",
      "text": "+297"
    },
    {
      "id": "AX",
      "text": "+35818"
    },
    {
      "id": "AZ",
      "text": "+994"
    },
    {
      "id": "BA",
      "text": "+387"
    },
    {
      "id": "BB",
      "text": "+1246"
    },
    {
      "id": "BD",
      "text": "+880"
    },
    {
      "id": "BE",
      "text": "+32"
    },
    {
      "id": "BF",
      "text": "+226"
    },
    {
      "id": "BG",
      "text": "+359"
    },
    {
      "id": "BH",
      "text": "+973"
    },
    {
      "id": "BI",
      "text": "+257"
    },
    {
      "id": "BJ",
      "text": "+229"
    },
    {
      "id": "BM",
      "text": "+1441"
    },
    {
      "id": "BN",
      "text": "+673"
    },
    {
      "id": "BO",
      "text": "+591"
    },
    {
      "id": "BR",
      "text": "+55"
    },
    {
      "id": "BS",
      "text": "+1242"
    },
    {
      "id": "BT",
      "text": "+975"
    },
    {
      "id": "BW",
      "text": "+267"
    },
    {
      "id": "BY",
      "text": "+375"
    },
    {
      "id": "BZ",
      "text": "+501"
    },
    {
      "id": "CA",
      "text": "+1"
    },
    {
      "id": "CC",
      "text": "+61"
    },
    {
      "id": "CD",
      "text": "+243"
    },
    {
      "id": "CF",
      "text": "+236"
    },
    {
      "id": "CG",
      "text": "+242"
    },
    {
      "id": "CH",
      "text": "+41"
    },
    {
      "id": "CI",
      "text": "+225"
    },
    {
      "id": "CK",
      "text": "+682"
    },
    {
      "id": "CL",
      "text": "+56"
    },
    {
      "id": "CM",
      "text": "+237"
    },
    {
      "id": "CN",
      "text": "+86"
    },
    {
      "id": "CO",
      "text": "+57"
    },
    {
      "id": "CR",
      "text": "+506"
    },
    {
      "id": "CS",
      "text": "+381"
    },
    {
      "id": "CU",
      "text": "+53"
    },
    {
      "id": "CV",
      "text": "+238"
    },
    {
      "id": "CX",
      "text": "+61"
    },
    {
      "id": "CY",
      "text": "+357"
    },
    {
      "id": "CZ",
      "text": "+420"
    },
    {
      "id": "DE",
      "text": "+49"
    },
    {
      "id": "DJ",
      "text": "+253"
    },
    {
      "id": "DK",
      "text": "+45"
    },
    {
      "id": "DM",
      "text": "+1767"
    },
    {
      "id": "DO",
      "text": "+1809"
    },
    {
      "id": "DZ",
      "text": "+213"
    },
    {
      "id": "EC",
      "text": "+593"
    },
    {
      "id": "EE",
      "text": "+372"
    },
    {
      "id": "EG",
      "text": "+20"
    },
    {
      "id": "EH",
      "text": "+212"
    },
    {
      "id": "ER",
      "text": "+291"
    },
    {
      "id": "ES",
      "text": "+34"
    },
    {
      "id": "ET",
      "text": "+251"
    },
    {
      "id": "FI",
      "text": "+358"
    },
    {
      "id": "FJ",
      "text": "+679"
    },
    {
      "id": "FK",
      "text": "+500"
    },
    {
      "id": "FM",
      "text": "+691"
    },
    {
      "id": "FO",
      "text": "+298"
    },
    {
      "id": "FR",
      "text": "+33"
    },
    {
      "id": "GA",
      "text": "+241"
    },
    {
      "id": "GB",
      "text": "+44"
    },
    {
      "id": "GD",
      "text": "+1473"
    },
    {
      "id": "GE",
      "text": "+995"
    },
    {
      "id": "GF",
      "text": "+594"
    },
    {
      "id": "GG",
      "text": "+44"
    },
    {
      "id": "GH",
      "text": "+233"
    },
    {
      "id": "GI",
      "text": "+350"
    },
    {
      "id": "GL",
      "text": "+299"
    },
    {
      "id": "GM",
      "text": "+220"
    },
    {
      "id": "GN",
      "text": "+224"
    },
    {
      "id": "GP",
      "text": "+590"
    },
    {
      "id": "GQ",
      "text": "+240"
    },
    {
      "id": "GR",
      "text": "+30"
    },
    {
      "id": "GT",
      "text": "+502"
    },
    {
      "id": "GU",
      "text": "+1671"
    },
    {
      "id": "GW",
      "text": "+245"
    },
    {
      "id": "GY",
      "text": "+592"
    },
    {
      "id": "HK",
      "text": "+852"
    },
    {
      "id": "HN",
      "text": "+504"
    },
    {
      "id": "HR",
      "text": "+385"
    },
    {
      "id": "HT",
      "text": "+509"
    },
    {
      "id": "HU",
      "text": "+36"
    },
    {
      "id": "ID",
      "text": "+62"
    },
    {
      "id": "IE",
      "text": "+353"
    },
    {
      "id": "IL",
      "text": "+972"
    },
    {
      "id": "IM",
      "text": "+44"
    },
    {
      "id": "IN",
      "text": "+91"
    },
    {
      "id": "IO",
      "text": "+246"
    },
    {
      "id": "IQ",
      "text": "+964"
    },
    {
      "id": "IR",
      "text": "+98"
    },
    {
      "id": "IS",
      "text": "+354"
    },
    {
      "id": "IT",
      "text": "+39"
    },
    {
      "id": "JE",
      "text": "+44"
    },
    {
      "id": "JM",
      "text": "+1876"
    },
    {
      "id": "JO",
      "text": "+962"
    },
    {
      "id": "JP",
      "text": "+81"
    },
    {
      "id": "KE",
      "text": "+254"
    },
    {
      "id": "KG",
      "text": "+996"
    },
    {
      "id": "KH",
      "text": "+855"
    },
    {
      "id": "KI",
      "text": "+686"
    },
    {
      "id": "KM",
      "text": "+269"
    },
    {
      "id": "KN",
      "text": "+1869"
    },
    {
      "id": "KP",
      "text": "+850"
    },
    {
      "id": "KR",
      "text": "+82"
    },
    {
      "id": "KW",
      "text": "+965"
    },
    {
      "id": "KY",
      "text": "+1345"
    },
    {
      "id": "KZ",
      "text": "+7"
    },
    {
      "id": "LA",
      "text": "+856"
    },
    {
      "id": "LB",
      "text": "+961"
    },
    {
      "id": "LC",
      "text": "+1758"
    },
    {
      "id": "LI",
      "text": "+423"
    },
    {
      "id": "LK",
      "text": "+94"
    },
    {
      "id": "LR",
      "text": "+231"
    },
    {
      "id": "LS",
      "text": "+266"
    },
    {
      "id": "LT",
      "text": "+370"
    },
    {
      "id": "LU",
      "text": "+352"
    },
    {
      "id": "LV",
      "text": "+371"
    },
    {
      "id": "LY",
      "text": "+218"
    },
    {
      "id": "MA",
      "text": "+212"
    },
    {
      "id": "MC",
      "text": "+377"
    },
    {
      "id": "MD",
      "text": "+373"
    },
    {
      "id": "ME",
      "text": "+382"
    },
    {
      "id": "MG",
      "text": "+261"
    },
    {
      "id": "MH",
      "text": "+692"
    },
    {
      "id": "MK",
      "text": "+389"
    },
    {
      "id": "ML",
      "text": "+223"
    },
    {
      "id": "MM",
      "text": "+95"
    },
    {
      "id": "MN",
      "text": "+976"
    },
    {
      "id": "MO",
      "text": "+853"
    },
    {
      "id": "MP",
      "text": "+1670"
    },
    {
      "id": "MQ",
      "text": "+596"
    },
    {
      "id": "MR",
      "text": "+222"
    },
    {
      "id": "MS",
      "text": "+1664"
    },
    {
      "id": "MT",
      "text": "+356"
    },
    {
      "id": "MU",
      "text": "+230"
    },
    {
      "id": "MV",
      "text": "+960"
    },
    {
      "id": "MW",
      "text": "+265"
    },
    {
      "id": "MX",
      "text": "+52"
    },
    {
      "id": "MY",
      "text": "+60"
    },
    {
      "id": "MZ",
      "text": "+258"
    },
    {
      "id": "NA",
      "text": "+264"
    },
    {
      "id": "NC",
      "text": "+687"
    },
    {
      "id": "NE",
      "text": "+227"
    },
    {
      "id": "NF",
      "text": "+672"
    },
    {
      "id": "NG",
      "text": "+234"
    },
    {
      "id": "NI",
      "text": "+505"
    },
    {
      "id": "NL",
      "text": "+31"
    },
    {
      "id": "NO",
      "text": "+47"
    },
    {
      "id": "NP",
      "text": "+977"
    },
    {
      "id": "NR",
      "text": "+674"
    },
    {
      "id": "NU",
      "text": "+683"
    },
    {
      "id": "NZ",
      "text": "+64"
    },
    {
      "id": "OM",
      "text": "+968"
    },
    {
      "id": "PA",
      "text": "+507"
    },
    {
      "id": "PE",
      "text": "+51"
    },
    {
      "id": "PF",
      "text": "+689"
    },
    {
      "id": "PG",
      "text": "+675"
    },
    {
      "id": "PH",
      "text": "+63"
    },
    {
      "id": "PK",
      "text": "+92"
    },
    {
      "id": "PL",
      "text": "+48"
    },
    {
      "id": "PM",
      "text": "+508"
    },
    {
      "id": "PR",
      "text": "+1787"
    },
    {
      "id": "PS",
      "text": "+970"
    },
    {
      "id": "PT",
      "text": "+351"
    },
    {
      "id": "PW",
      "text": "+680"
    },
    {
      "id": "PY",
      "text": "+595"
    },
    {
      "id": "QA",
      "text": "+974"
    },
    {
      "id": "RE",
      "text": "+262"
    },
    {
      "id": "RO",
      "text": "+40"
    },
    {
      "id": "RS",
      "text": "+381"
    },
    {
      "id": "RU",
      "text": "+7"
    },
    {
      "id": "RW",
      "text": "+250"
    },
    {
      "id": "SA",
      "text": "+966"
    },
    {
      "id": "SB",
      "text": "+677"
    },
    {
      "id": "SC",
      "text": "+248"
    },
    {
      "id": "SD",
      "text": "+249"
    },
    {
      "id": "SE",
      "text": "+46"
    },
    {
      "id": "SG",
      "text": "+65"
    },
    {
      "id": "SH",
      "text": "+290"
    },
    {
      "id": "SI",
      "text": "+386"
    },
    {
      "id": "SJ",
      "text": "+47"
    },
    {
      "id": "SK",
      "text": "+421"
    },
    {
      "id": "SL",
      "text": "+232"
    },
    {
      "id": "SM",
      "text": "+378"
    },
    {
      "id": "SN",
      "text": "+221"
    },
    {
      "id": "SO",
      "text": "+252"
    },
    {
      "id": "SR",
      "text": "+597"
    },
    {
      "id": "ST",
      "text": "+239"
    },
    {
      "id": "SV",
      "text": "+503"
    },
    {
      "id": "SY",
      "text": "+963"
    },
    {
      "id": "SZ",
      "text": "+268"
    },
    {
      "id": "TA",
      "text": "+290"
    },
    {
      "id": "TC",
      "text": "+1649"
    },
    {
      "id": "TD",
      "text": "+235"
    },
    {
      "id": "TG",
      "text": "+228"
    },
    {
      "id": "TH",
      "text": "+66"
    },
    {
      "id": "TJ",
      "text": "+992"
    },
    {
      "id": "TK",
      "text": "+690"
    },
    {
      "id": "TL",
      "text": "+670"
    },
    {
      "id": "TM",
      "text": "+993"
    },
    {
      "id": "TN",
      "text": "+216"
    },
    {
      "id": "TO",
      "text": "+676"
    },
    {
      "id": "TR",
      "text": "+90"
    },
    {
      "id": "TT",
      "text": "+1868"
    },
    {
      "id": "TV",
      "text": "+688"
    },
    {
      "id": "TW",
      "text": "+886"
    },
    {
      "id": "TZ",
      "text": "+255"
    },
    {
      "id": "UA",
      "text": "+380"
    },
    {
      "id": "UG",
      "text": "+256"
    },
    {
      "id": "US",
      "text": "+1"
    },
    {
      "id": "UY",
      "text": "+598"
    },
    {
      "id": "UZ",
      "text": "+998"
    },
    {
      "id": "VA",
      "text": "+379"
    },
    {
      "id": "VC",
      "text": "+1784"
    },
    {
      "id": "VE",
      "text": "+58"
    },
    {
      "id": "VG",
      "text": "+1284"
    },
    {
      "id": "VI",
      "text": "+1340"
    },
    {
      "id": "VN",
      "text": "+84"
    },
    {
      "id": "VU",
      "text": "+678"
    },
    {
      "id": "WF",
      "text": "+681"
    },
    {
      "id": "WS",
      "text": "+685"
    },
    {
      "id": "YE",
      "text": "+967"
    },
    {
      "id": "YT",
      "text": "+262"
    },
    {
      "id": "ZA",
      "text": "+27"
    },
    {
      "id": "ZM",
      "text": "+260"
    },
    {
      "id": "ZW",
      "text": "+263"
    }
  ]
}
